<?xml version="1.0" encoding="UTF-8"?><svg xmlns="http://www.w3.org/2000/svg" xmlns:xlink="http://www.w3.org/1999/xlink" stroke-dasharray="none" shape-rendering="auto" font-family="'Dialog'" width="120" text-rendering="auto" fill-opacity="1" contentScriptType="text/ecmascript" color-interpolation="auto" color-rendering="auto" preserveAspectRatio="xMidYMid meet" font-size="12" viewBox="0 0 120 120" fill="black" stroke="black" image-rendering="auto" stroke-miterlimit="10" zoomAndPan="magnify" version="1.0" stroke-linecap="square" stroke-linejoin="miter" contentStyleType="text/css" font-style="normal" height="120" stroke-width="1" stroke-dashoffset="0" font-weight="normal" stroke-opacity="1">
<!--Generated by the Batik Graphics2D SVG Generator-->
<defs id="genericDefs"/>
<g>
<defs id="defs1">
<clipPath clipPathUnits="userSpaceOnUse" id="clipPath1">
<path d="M9 9 L111 9 L111 111 L9 111 L9 9 Z"/>
</clipPath>
<clipPath clipPathUnits="userSpaceOnUse" id="clipPath2">
<path d="M49 35 L70 35 L70 57 L49 57 L49 35 Z"/>
</clipPath>
<clipPath clipPathUnits="userSpaceOnUse" id="clipPath3">
<path d="M46 87 L73 87 L73 106 L46 106 L46 87 Z"/>
</clipPath>
</defs>
<g font-size="15" fill="white" font-family="'Segoe UI'" stroke-linejoin="round" stroke="white" stroke-width="0" stroke-miterlimit="0">
<rect x="10" y="10" clip-path="url(#clipPath1)" width="100" height="100" stroke="none"/>
</g>
<g stroke-linecap="butt" font-size="15" fill="rgb(176,176,176)" font-family="'Segoe UI'" stroke="rgb(176,176,176)" stroke-width="1.2">
<rect x="10" y="10" clip-path="url(#clipPath1)" fill="none" width="99" height="99"/>
<image x="50" y="38" clip-path="url(#clipPath2)" width="16" xlink:href="data:image/png;base64,iVBORw0KGgoAAAANSUhEUgAAABAAAAAQCAYAAAAf8/9hAAABRklEQVR42mP8//8/&#13;&#10;AyWAiYFCMAwMYAERM2bM+P/x40eGP3/+wiX+8vAwMH/5gqHhLx8vA/OnzwwsLMwM&#13;&#10;XFxcEAMePXzEcOLgQYafQA28kpIMf1Q1GD44aTCw8nEyXOXnYLDfvIfhoK8L3BD1&#13;&#10;vacZuLdtYxAREYUY8OL5Cwapt28YalVUGKru3WNglZVl+Pf6JYPgrfcM/IqyDNtT&#13;&#10;whiMH71k4F23jeE2BzvD+wtXGFh+/mR49vQpxIDPXz4zsHFwMNwHuoRXWZnhHVDy&#13;&#10;/6UrDK852Rne8HKCbb3Ozsog8+kjA/erXwzMDP8Z/v77iwgDEDjy4QPDOaCfvl2+&#13;&#10;zPBZXJLhZ0YsA7OuFlhOsLCO4WdFAcOT9DiG/2/fMfx79oJBe8ZChAFi4mIoAcX7&#13;&#10;8jkDb2MXihhXSAIK/yUQ6+rqMjCOJmXKDQAA7DNxY+IAyYwAAAAASUVORK5CYII=" xlink:type="simple" xlink:actuate="onLoad" height="16" preserveAspectRatio="none" xlink:show="embed"/>
<text x="47" font-size="13" y="102" clip-path="url(#clipPath3)" fill="black" stroke="none" xml:space="preserve">DUT</text>
</g>
</g>
</svg>
